[
    {"id":"AG.LND.AGRI.ZS","name":"Agricultural land (% of land area)"},
    {"id":"SP.RUR.TOTL.ZS","name":"Rural population (% of total population)"},
    {"id":"AG.SRF.TOTL.K2", "name": "Surface area (sq. km)"},
    {"id": "EN.ATM.CO2E.KT", "name": "CO2 emissions (kt)"},
    {"id":"NY.GDP.PCAP.PP.CD","name":"GDP per capita, PPP (current international $)"},
    {"id": "SE.TER.ENRR", "name": "School enrollment, tertiary (% gross)"},
    {"id": "SP.POP.TOTL", "name": "Population, total"}              
]