[
    {"id":"AG.LND.FRST.ZS","name":"Forest area (% of land area)"},
    {"id":"AG.LND.AGRI.ZS","name":"Agricultural land (% of land area)"},
    {"id":"SP.RUR.TOTL.ZS","name":"Rural population (% of total population)"},
    {"id":"SH.DYN.MORT","name":"Mortality rate, under-5 (per 1,000 live births)"},
    {"id":"SH.DYN.AIDS.ZS","name":"Prevalence of HIV, total (% of population 15-49)"},
    {"id":"EN.ATM.CO2E.PC","name":"CO2 emissions (metric tons per capita)"},
    {"id":"EG.USE.ELEC.KH.PC","name":"Electric power consumption (kWh per capita)"},
    {"id":"SP.URB.TOTL.IN.ZS","name":"Urban population (% of total population)"},
    {"id":"EG.FEC.RNEW.ZS","name":"Renewable energy consumption (% of total)"},
    {"id":"NY.GDP.PCAP.KD.ZG","name":"GDP per capita growth (annual %)"},
    {"id":"NY.GDP.PCAP.PP.CD","name":"GDP per capita, PPP (current international $)"},
    {"id":"EG.USE.COMM.FO.ZS","name":"Fossil fuel energy consumption (% of total)"},
    {"id":"SE.SEC.PROG.MA.ZS","name":"Progression to secondary school, male (%)"},
    {"id":"SE.SEC.PROG.FE.ZS","name":"Progression to secondary school, female (%)"},
    {"id":"SI.DST.10TH.10","name":"Income share held by highest 10%"},
    {"id":"SI.DST.FRST.20","name":"Income share held by lowest 20%"},
    {"id":"EG.USE.ELEC.KH.PC","name":"Electric power consumption (kWh per capita)"}
]